Cluster genomes at 4 levels from a pangenome gene PA matrix Needs parallelDist, igraph, genomes as rows and genes as columns? — cluster_genomes • pdtools
…
    Examples

# note the t() because the dist() function finds dists between rows of a matrix
cluster_genomes(dat_mat=t(example_pangenome_matrix),
                pcut=.80,
                scut=.85,
                tcut=.90,
                qcut=.95,
                write_dist=FALSE,
                write_graph=FALSE)
#> [1] "calculating distances"
#> [1] "converting to similarities"
#> [1] "building graph"
#> # A tibble: 100 × 5
#>    asm_acc   primary_cluster secondary_cluster tertiary_cluster quat_cluster
#>    <chr>     <membrshp>      <membrshp>        <membrshp>       <membrshp>  
#>  1 genome_1  1                1                 1                1          
#>  2 genome_2  2                2                 2                2          
#>  3 genome_3  2                3                 3                3          
#>  4 genome_4  1                4                 4                4          
#>  5 genome_5  2                5                 5                5          
#>  6 genome_6  2                6                 6                6          
#>  7 genome_7  3                7                 7                7          
#>  8 genome_8  4                8                 8                8          
#>  9 genome_9  3                9                 9                9          
#> 10 genome_10 2               10                10               10          
#> # … with 90 more rows
…
