List organisms available in the Pathogens database — list_organisms • pdtools
…
    list_organisms.Rd

    List organisms available in the Pathogens database

list_organisms()

    Value

    a tibble of available organisms

    Examples

 list_organisms()
#> # A tibble: 47 × 2
#>    organism                 release_date       
#>    <chr>                    <dttm>             
#>  1 Aeromonas                2021-11-05 07:51:00
#>  2 Aeromonas_salmonicida    2021-10-31 21:42:00
#>  3 Aeromonas_sobria         2021-11-04 07:14:00
#>  4 Aeromonas_veronii        2021-10-28 11:51:00
#>  5 Bacillus_cereus_group    2021-11-20 04:17:00
#>  6 Campylobacter            2021-11-24 00:05:00
#>  7 Candida_auris            2021-11-23 00:06:00
#>  8 Citrobacter_freundii     2021-11-23 00:07:00
#>  9 Clostridioides_difficile 2021-11-23 00:08:00
#> 10 Clostridium_botulinum    2021-11-13 08:46:00
#> # … with 37 more rows
…
