Downloading and organizing a collection of NCBI pathogen genomes • pdtools
…
download_data
#> # A tibble: 3,698 × 4
#>    asm_acc         ftp_path                                fna_download fna_dest
#>    <chr>           <chr>                                   <chr>        <chr>   
#>  1 GCA_010227295.1 https://ftp.ncbi.nlm.nih.gov/genomes/a… https://ftp… ./data/…
#>  2 GCA_010228415.1 https://ftp.ncbi.nlm.nih.gov/genomes/a… https://ftp… ./data/…
#>  3 GCA_010362025.1 https://ftp.ncbi.nlm.nih.gov/genomes/a… https://ftp… ./data/…
#>  4 GCA_010226715.1 https://ftp.ncbi.nlm.nih.gov/genomes/a… https://ftp… ./data/…
#>  5 GCA_010362165.1 https://ftp.ncbi.nlm.nih.gov/genomes/a… https://ftp… ./data/…
#>  6 GCA_010230835.1 https://ftp.ncbi.nlm.nih.gov/genomes/a… https://ftp… ./data/…
#>  7 GCA_010362385.1 https://ftp.ncbi.nlm.nih.gov/genomes/a… https://ftp… ./data/…
#>  8 GCA_010227315.1 https://ftp.ncbi.nlm.nih.gov/genomes/a… https://ftp… ./data/…
#>  9 GCA_010362545.1 https://ftp.ncbi.nlm.nih.gov/genomes/a… https://ftp… ./data/…
#> 10 GCA_010228665.1 https://ftp.ncbi.nlm.nih.gov/genomes/a… https://ftp… ./data/…
#> # … with 3,688 more rows
…
